Title,ProductID,URL,ImageUrl,Description,Price
Linas Originalkasse,3,https://www.linasmatkasse.se/linas-originalkasse/?c=ADROLLR&utm_source=adroll&utm_campaign=adroll_retarg&utm_medium=banner,https://www.linasmatkasse.se/wp-content/uploads/2015/01/LOK.png,Familjefavorit som gör det roligare att laga vardagsmat.,Från 499:-
Linas Barnkasse,4,https://www.linasmatkasse.se/linas-barnkasse/?c=ADROLLR&utm_source=adroll&utm_campaign=adroll_retarg&utm_medium=banner,https://www.linasmatkasse.se/wp-content/uploads/2015/01/LBK51.png,"Lätt att laga, lätt att gilla. Finns också som laktosfri eller utan gluten.",Från 299:-
Linas Lättlagade kasse,22,https://www.linasmatkasse.se/linas-lattlagade-kasse/?c=ADROLLR&utm_source=adroll&utm_campaign=adroll_retarg&utm_medium=banner,https://www.linasmatkasse.se/wp-content/uploads/2015/06/NyLLK460.png,"Lätt att laga, med välbekanta smaker.",Från 299:-
Linas Flexitariankasse,26,https://www.linasmatkasse.se/linas-flexitariankasse/?c=ADROLLR&utm_source=adroll&utm_campaign=adroll_retarg&utm_medium=banner,https://www.linasmatkasse.se/wp-content/uploads/2016/03/NyFlexitarianBig460.png,"Mer grönt, mindre kött",Från 499:-
Linas Inspirationskasse,2,https://www.linasmatkasse.se/linas-inspirationskasse/?c=ADROLLR&utm_source=adroll&utm_campaign=adroll_retarg&utm_medium=banner,https://www.linasmatkasse.se/wp-content/uploads/2015/01/LIK.png,Nytänk och husmanskost i en inspirerande blandning,Från 299:-
Linas Vegetariska Kasse,15,https://www.linasmatkasse.se/linas-vegetariska-kasse/?c=ADROLLR&utm_source=adroll&utm_campaign=adroll_retarg&utm_medium=banner,https://www.linasmatkasse.se/wp-content/uploads/2015/01/LVK.png,"med ägg, ost och mjölkprodukter. Grön inspiration och goda middagar",Från 299:-
Linas Barnkasse utan gluten,20,https://www.linasmatkasse.se/linas-barnkasse-utan-gluten/?c=ADROLLR&utm_source=adroll&utm_campaign=adroll_retarg&utm_medium=banner,https://www.linasmatkasse.se/wp-content/uploads/2015/09/barnkassen-ug-utan-barilla.png,"Lätt att laga, lätt att gilla.",Från 559:-
Linas Barnkasse Laktosfri,12,https://www.linasmatkasse.se/linas-barnkasse-laktosfri/?c=ADROLLR&utm_source=adroll&utm_campaign=adroll_retarg&utm_medium=banner,https://www.linasmatkasse.se/wp-content/uploads/2015/01/LMK-LAKTOS-460x560-151130.png,"Lätt att laga, lätt att gilla.",Från 559:-